[gd_scene load_steps=4 format=2]

[ext_resource path="res://assets/image1.png" type="Texture" id=1]
[ext_resource path="res://src/scenes/tile/Tile.gd" type="Script" id=2]

[sub_resource type="StyleBoxFlat" id=1]
draw_center = false
border_width_left = 1
border_width_top = 1
border_width_right = 1
border_width_bottom = 1
border_color = Color( 0.388235, 0.478431, 0.0431373, 1 )

[node name="Tile" type="TextureButton"]
margin_right = 70.0
margin_bottom = 52.0
script = ExtResource( 2 )

[node name="Sprite" type="Sprite" parent="."]
scale = Vector2( 0.344, 0.344 )
texture = ExtResource( 1 )
centered = false
hframes = 4
vframes = 4

[node name="Number" type="Control" parent="."]
margin_right = 69.0
margin_bottom = 52.0
mouse_filter = 2

[node name="ColorRect" type="ColorRect" parent="Number"]
margin_right = 70.0
margin_bottom = 52.0
mouse_filter = 2
color = Color( 0.0392157, 0.0352941, 0.0352941, 0.721569 )

[node name="Label" type="Label" parent="Number"]
margin_right = 70.0
margin_bottom = 52.0
text = "1"
align = 1
valign = 1

[node name="Tween" type="Tween" parent="."]

[node name="Panel" type="Panel" parent="."]
margin_right = 70.0
margin_bottom = 52.0
mouse_filter = 2
custom_styles/panel = SubResource( 1 )

[connection signal="pressed" from="." to="." method="_on_tile_pressed"]
[connection signal="tween_completed" from="Tween" to="." method="_on_Tween_tween_completed"]
